15.2 Creating workflow_sets | Tidy Modeling with R Book Club
…
set.seed(seed)
split <- df_selected %>% initial_split(strata = !!col_y_sym)
df_trn <- split %>% training()
df_tst  <- split %>% testing()

folds <-
  df_trn %>% 
  vfold_cv(strata = !!col_y_sym, repeats = 5)
folds

## #  10-fold cross-validation repeated 5 times using stratification 
## # A tibble: 50 × 3
##    splits          id      id2   
##    <list>          <chr>   <chr> 
##  1 <split [97/12]> Repeat1 Fold01
##  2 <split [97/12]> Repeat1 Fold02
##  3 <split [97/12]> Repeat1 Fold03
##  4 <split [97/12]> Repeat1 Fold04
##  5 <split [97/12]> Repeat1 Fold05
##  6 <split [97/12]> Repeat1 Fold06
##  7 <split [97/12]> Repeat1 Fold07
##  8 <split [100/9]> Repeat1 Fold08
##  9 <split [101/8]> Repeat1 Fold09
## 10 <split [101/8]> Repeat1 Fold10
## # … with 40 more rows
…
