3.2 Inspecting and developing models | Tidy Modeling with R Book Club
…
reg_fits %>% .select_unnest(glanced)

## # A tibble: 4 × 13
##   group r.squared adj.r.squared sigma statistic p.value    df logLik   AIC   BIC
##   <chr>     <dbl>         <dbl> <dbl>     <dbl>   <dbl> <dbl>  <dbl> <dbl> <dbl>
## 1 A         0.960         0.951  3.81     107.  5.27e-7     2  -31.3  70.7  72.6
## 2 B         0.935         0.891  2.20      21.5 1.66e-2     2  -11.2  30.3  29.5
## 3 C         0.946         0.910  4.06      26.2 1.26e-2     2  -14.8  37.7  36.8
## 4 D         0.990         0.985  2.80     194.  1.04e-4     2  -15.2  38.4  38.2
## # … with 3 more variables: deviance <dbl>, df.residual <int>, nobs <int>

reg_fits %>% .select_unnest(augmented)

## # A tibble: 31 × 10
##    group Volume Girth Height .fitted .resid   .hat .sigma .cooksd .std.resid
##    <chr>  <dbl> <dbl>  <dbl>   <dbl>  <dbl>  <dbl>  <dbl>   <dbl>      <dbl>
##  1 A       10.3   8.3     70    7.81  2.49  0.252    3.91 0.0645       0.758
##  2 A       10.3   8.6     65    7.82  2.48  0.283    3.90 0.0780       0.769
##  3 A       10.2   8.8     63    8.17  2.03  0.395    3.93 0.103        0.687
##  4 A       16.4  10.5     72   17.6  -1.18  0.134    4.01 0.00566     -0.332
##  5 A       22.6  11.1     80   22.1   0.500 0.534    4.03 0.0142       0.192
##  6 A       19.1  12       75   24.6  -5.54  0.123    3.45 0.113       -1.56 
##  7 A       22.2  12.9     74   28.2  -5.99  0.0837   3.38 0.0823      -1.64 
##  8 A       36.3  14.5     74   34.9   1.37  0.116    4.00 0.00643      0.383
##  9 A       38.3  16       72   40.8  -2.45  0.330    3.90 0.101       -0.787
## 10 A       55.7  17.5     82   49.6   6.13  0.255    3.16 0.397        1.87 
## # … with 21 more rows
