Notes on Chapter 9 Judging model effectiveness - Cohort 3 | Tidy Modeling with R Book Club
…
Fit: The function to prepare the recipe and train the model from the resulting predictors

flights_fit <-
  flights_wflow %>%
  # prepare the recipe and train the model
  fit(data = train_data)

Extract the model or recipe objects from the workflow:

flights_fit %>%
  pull_workflow_fit() %>%
  tidy()

## # A tibble: 158 x 5
##    term                         estimate std.error statistic  p.value
##    <chr>                           <dbl>     <dbl>     <dbl>    <dbl>
##  1 (Intercept)                   5.25    2.72           1.93 5.40e- 2
##  2 dep_time                     -0.00167 0.0000141   -118.   0       
##  3 air_time                     -0.0438  0.000561     -78.0  0       
##  4 distance                      0.00615 0.00150        4.10 4.09e- 5
##  5 date_USChristmasDay           1.14    0.171          6.65 2.86e-11
##  6 date_USColumbusDay            0.627   0.169          3.72 2.03e- 4
##  7 date_USCPulaskisBirthday      0.702   0.133          5.29 1.25e- 7
##  8 date_USDecorationMemorialDay  0.363   0.117          3.11 1.86e- 3
##  9 date_USElectionDay            0.695   0.177          3.92 8.87e- 5
## 10 date_USGoodFriday             1.15    0.156          7.39 1.45e-13
## # … with 148 more rows
…
lm_model <- linear_reg() %>% set_engine("lm") 
lm_wflow <- workflow() %>% add_model(lm_model)
lm_wflow <- lm_wflow %>% add_recipe(parks_rec)
lm_fit <- fit(lm_wflow, parks_train)

# predict(lm_fit, parks_test %>% slice(1:3))

# test the model on new data
parks_test_res <- predict(lm_fit, new_data = parks_test %>% select(-amenities_points)) %>% 
  bind_cols(parks_test %>% select(amenities_points))

parks_test_res

## # A tibble: 143 x 2
##    .pred amenities_points
##    <dbl>            <dbl>
##  1  79.2             79.3
##  2  77.9             78  
##  3  65.1             65.2
##  4  37.2             37.2
##  5  58.6             58.7
##  6  79.4             79.5
##  7  47.5             47.5
##  8  60.8             60.8
##  9  56.0             56  
## 10  62.0             62  
## # … with 133 more rows
…
all of the above have the event_level argument (first/second level)

To visualize the model metrics behavior, the receiver operating characteristic (ROC) curve computes the sensitivity and specificity over a continuum of different event thresholds

roc_curve() (curve)

roc_auc() (area)

two_class_curve <- roc_curve(two_class_example, truth, Class1)
  
two_class_curve

## # A tibble: 502 x 3
##    .threshold specificity sensitivity
##         <dbl>       <dbl>       <dbl>
##  1 -Inf           0                 1
##  2    1.79e-7     0                 1
##  3    4.50e-6     0.00413           1
##  4    5.81e-6     0.00826           1
##  5    5.92e-6     0.0124            1
##  6    1.22e-5     0.0165            1
##  7    1.40e-5     0.0207            1
##  8    1.43e-5     0.0248            1
##  9    2.38e-5     0.0289            1
## 10    3.30e-5     0.0331            1
## # … with 492 more rows
…
