10.3 Resampling methods | Tidy Modeling with R Book Club
…
10.3.1.2 Repeated cross validation

V-fold CV introduced above may produce noisy estimates. A technique that
averages over more than V statistics may be more appropriate to reduce
the noise. This technique is repeated cross-validation, where we create
R repeats of V-fold CV. Instead of averaging over V statistics, we are
now averaging over V x R statistics:

vfold_cv(ames_train, v = 10, repeats = 5) 

## #  10-fold cross-validation repeated 5 times 
## # A tibble: 50 x 3
##    splits             id      id2   
##    <list>             <chr>   <chr> 
##  1 <split [2111/235]> Repeat1 Fold01
##  2 <split [2111/235]> Repeat1 Fold02
##  3 <split [2111/235]> Repeat1 Fold03
##  4 <split [2111/235]> Repeat1 Fold04
##  5 <split [2111/235]> Repeat1 Fold05
##  6 <split [2111/235]> Repeat1 Fold06
##  7 <split [2112/234]> Repeat1 Fold07
##  8 <split [2112/234]> Repeat1 Fold08
##  9 <split [2112/234]> Repeat1 Fold09
## 10 <split [2112/234]> Repeat1 Fold10
## # … with 40 more rows
…
